Lab 5
…
Create a data frame containing the most dangerous vehicle make in each state. The number of persons fatally hit in the vehicle make is used to assess the (non-)safety of a make. Make sure to handle the missing values appropriately. (look up variable MAKE)

danger_vehicles <- fatal_hurt %>% group_by(MAKE, INJ_SEV,na.rm = TRUE) %>% arrange(MAKE, INJ_SEV)

fatal_hurt %>% group_by(STATE, MAKE) %>% summarize(n = n()) %>% group_by(STATE) %>% filter(n == max(n))

## `summarise()` regrouping output by 'STATE' (override with `.groups` argument)

## # A tibble: 54 x 3
## # Groups:   STATE [51]
##    STATE  MAKE     n
##    <int> <int> <int>
##  1     1    12   138
##  2     2    NA    17
##  3     4    NA   261
##  4     5    20    88
##  5     6    NA  1012
##  6     8    NA   108
##  7     9    NA    51
##  8    10    NA    39
##  9    11    NA    13
## 10    12    NA   803
## #  with 44 more rows
…
